Outcomes of intercostal to pectoralis nerve transfer after brachial plexus injury
…
First, we will import the database into R from excel, which has already been cleaned.

library(readxl)
Pectexcel <- read_excel("~/Downloads/Pectexcel.xlsx")
pect<-Pectexcel
pect

## # A tibble: 161 x 9
##    name    age   sex  side surgedelay follow outpect injuryloc outpect_cat
##    <chr> <dbl> <dbl> <dbl>      <dbl>  <dbl>   <dbl>     <dbl>       <dbl>
##  1 Abba    34     0     1       10      7         1         2           0
##  2 Akas    21     0     1        2.5   30         3         1           1
##  3 Alme    40     0     0        3     13.5       1         1           0
##  4 Alpe    24     0     0        4     25         4         1           1
##  5 Amar    23     0     0        2.5   18         4         1           1
##  6 Amit    26     0     1       14     27.5       2         2           0
##  7 Amit    26     0     0        6.5   21.5       2         1           0
##  8 Amja    30     0     0        4     27         3         1           1
##  9 Amol    26     0     1       11     22         3         1           1
## 10 Amol    23     0     1        3.5   17         3         1           1
## # ... with 151 more rows
…
